^D:\4. MY_PROJECT\OPCUAMODBUSSERVER\OPCUAMODBUSSERVER\X64\DEBUG\HOLDINGREGISTER.OBJ|D:\4. MY_PROJECT\OPCUAMODBUSSERVER\OPCUAMODBUSSERVER\X64\DEBUG\MODBUSOBJECT.OBJ|D:\4. MY_PROJECT\OPCUAMODBUSSERVER\OPCUAMODBUSSERVER\X64\DEBUG\MODBUSREADCOIL.OBJ|D:\4. MY_PROJECT\OPCUAMODBUSSERVER\OPCUAMODBUSSERVER\X64\DEBUG\MODBUSWRITECOIL.OBJ|D:\4. MY_PROJECT\OPCUAMODBUSSERVER\OPCUAMODBUSSERVER\X64\DEBUG\NMBUILDING.OBJ|D:\4. MY_PROJECT\OPCUAMODBUSSERVER\OPCUAMODBUSSERVER\X64\DEBUG\OPCSERVER.OBJ|D:\4. MY_PROJECT\OPCUAMODBUSSERVER\OPCUAMODBUSSERVER\X64\DEBUG\SERVERMAIN.OBJ|D:\4. MY_PROJECT\OPCUAMODBUSSERVER\OPCUAMODBUSSERVER\X64\DEBUG\SHUTDOWN.OBJ|D:\4. MY_PROJECT\OPCUAMODBUSSERVER\OPCUAMODBUSSERVER\X64\DEBUG\TAGMODBUSOBJECT.OBJ|D:\4. MY_PROJECT\OPCUAMODBUSSERVER\OPCUAMODBUSSERVER\X64\DEBUG\WRITEREGISTER.OBJ
D:\4. MY_PROJECT\OPCUAMODBUSSERVER\X64\DEBUG\OPCUAMODBUSSERVER.EXE
D:\4. MY_PROJECT\OPCUAMODBUSSERVER\X64\DEBUG\OPCUAMODBUSSERVER.ILK
D:\4. MY_PROJECT\OPCUAMODBUSSERVER\X64\DEBUG\OPCUAMODBUSSERVER.PDB
^C:\USERS\ADMIN\DESKTOP\OPCUAMODBUSSERVER\OPCUAMODBUSSERVER\X64\DEBUG\HOLDINGREGISTER.OBJ|C:\USERS\ADMIN\DESKTOP\OPCUAMODBUSSERVER\OPCUAMODBUSSERVER\X64\DEBUG\MODBUSOBJECT.OBJ|C:\USERS\ADMIN\DESKTOP\OPCUAMODBUSSERVER\OPCUAMODBUSSERVER\X64\DEBUG\MODBUSREADCOIL.OBJ|C:\USERS\ADMIN\DESKTOP\OPCUAMODBUSSERVER\OPCUAMODBUSSERVER\X64\DEBUG\MODBUSWRITECOIL.OBJ|C:\USERS\ADMIN\DESKTOP\OPCUAMODBUSSERVER\OPCUAMODBUSSERVER\X64\DEBUG\NMBUILDING.OBJ|C:\USERS\ADMIN\DESKTOP\OPCUAMODBUSSERVER\OPCUAMODBUSSERVER\X64\DEBUG\OPCSERVER.OBJ|C:\USERS\ADMIN\DESKTOP\OPCUAMODBUSSERVER\OPCUAMODBUSSERVER\X64\DEBUG\SERVERMAIN.OBJ|C:\USERS\ADMIN\DESKTOP\OPCUAMODBUSSERVER\OPCUAMODBUSSERVER\X64\DEBUG\SHUTDOWN.OBJ|C:\USERS\ADMIN\DESKTOP\OPCUAMODBUSSERVER\OPCUAMODBUSSERVER\X64\DEBUG\TAGMODBUSOBJECT.OBJ|C:\USERS\ADMIN\DESKTOP\OPCUAMODBUSSERVER\OPCUAMODBUSSERVER\X64\DEBUG\WRITEREGISTER.OBJ
C:\USERS\ADMIN\DESKTOP\OPCUAMODBUSSERVER\X64\DEBUG\OPCUAMODBUSSERVER.EXE
C:\USERS\ADMIN\DESKTOP\OPCUAMODBUSSERVER\X64\DEBUG\OPCUAMODBUSSERVER.ILK
C:\USERS\ADMIN\DESKTOP\OPCUAMODBUSSERVER\X64\DEBUG\OPCUAMODBUSSERVER.PDB
